{
    "type": "application",
    "source-directories": [
        "src"
    ],
    "elm-version": "0.19.0",
    "dependencies": {
        "direct": {
            "elm/browser": "1.0.0",
            "elm/core": "1.0.2",
            "elm/html": "1.0.0",
            "elm/http": "2.0.0",
            "elm/json": "1.1.2",
            "elm/parser": "1.1.0",
            "elm/svg": "1.0.1",
            "elm/time": "1.0.0",
            "elm/url": "1.0.0",
            "elm-community/basics-extra": "4.0.0",
            "elm-community/list-extra": "8.1.0",
            "elm-community/maybe-extra": "5.0.0",
            "elm-community/result-extra": "2.2.1",
            "elm-explorations/markdown": "1.0.0",
            "feathericons/elm-feather": "1.3.0",
            "ianmackenzie/elm-geometry": "1.2.1",
            "ianmackenzie/elm-geometry-svg": "1.0.2",
            "mdgriffith/elm-markup": "2.0.6",
            "mdgriffith/elm-ui": "1.1.0",
            "tad-lispy/springs": "1.0.4",
            "turboMaCk/any-dict": "1.0.1"
        },
        "indirect": {
            "elm/bytes": "1.0.7",
            "elm/file": "1.0.1",
            "elm/virtual-dom": "1.0.2",
            "ianmackenzie/elm-float-extra": "1.0.1",
            "ianmackenzie/elm-interval": "1.0.1",
            "ianmackenzie/elm-triangular-mesh": "1.0.2"
        }
    },
    "test-dependencies": {
        "direct": {},
        "indirect": {}
    }
}